/home/kkawula/Programowanie/zadanie rekrutacyjne/generatingnumber/src/main/java/com/thinksofthenumbers/thinksofthenumbers/security/AuthProvider.java
/home/kkawula/Programowanie/zadanie rekrutacyjne/generatingnumber/src/main/java/com/thinksofthenumbers/thinksofthenumbers/security/AuthenticationToken.java
/home/kkawula/Programowanie/zadanie rekrutacyjne/generatingnumber/src/main/java/com/thinksofthenumbers/thinksofthenumbers/security/AuthFilter.java
/home/kkawula/Programowanie/zadanie rekrutacyjne/generatingnumber/src/main/java/com/thinksofthenumbers/thinksofthenumbers/security/TokenStore.java
/home/kkawula/Programowanie/zadanie rekrutacyjne/generatingnumber/src/main/java/com/thinksofthenumbers/thinksofthenumbers/GeneratingNumberController.java
/home/kkawula/Programowanie/zadanie rekrutacyjne/generatingnumber/src/main/java/com/thinksofthenumbers/thinksofthenumbers/GeneratingNumberService.java
/home/kkawula/Programowanie/zadanie rekrutacyjne/generatingnumber/src/main/java/com/thinksofthenumbers/thinksofthenumbers/security/SecurityConfig.java
/home/kkawula/Programowanie/zadanie rekrutacyjne/generatingnumber/src/main/java/com/thinksofthenumbers/thinksofthenumbers/ThingsOfTheNumbersApplication.java
